C:\Users\payus\Desktop\Systeme\friendsystem\friendsystem-bungee\src\main\java\net\ravenix\friendsystem\bungee\commands\MSGCommand.java
C:\Users\payus\Desktop\Systeme\friendsystem\friendsystem-bungee\src\main\java\net\ravenix\friendsystem\bungee\commands\RCommand.java
C:\Users\payus\Desktop\Systeme\friendsystem\friendsystem-bungee\src\main\java\net\ravenix\friendsystem\bungee\listener\PubSubListener.java
C:\Users\payus\Desktop\Systeme\friendsystem\friendsystem-bungee\src\main\java\net\ravenix\friendsystem\bungee\friend\FriendProvider.java
C:\Users\payus\Desktop\Systeme\friendsystem\friendsystem-bungee\src\main\java\net\ravenix\friendsystem\bungee\BungeeFriends.java
C:\Users\payus\Desktop\Systeme\friendsystem\friendsystem-bungee\src\main\java\net\ravenix\friendsystem\bungee\commands\FriendCommand.java
C:\Users\payus\Desktop\Systeme\friendsystem\friendsystem-bungee\src\main\java\net\ravenix\friendsystem\bungee\listener\PlayerJoinQuitListener.java
